{"page":1,"limit":10,"explicit":false,"total":134,"has_more":true,"list":[{"id":"x4n7x1f","title":"Evi's Koffie- en Eethuisje Middelkerke","views_total":3,"embed_url":"http:\/\/www.dailymotion.com\/embed\/video\/x4n7x1f","description":"Ontspan bij een kopje koffie of thee van Viva Sara bij Evi's Koffie- en Eethuisje in Middelkerke. Kom met de kusttram en stap af bij halte De Greefplein. <br \/><br \/>Daar wacht u een lekker ontbijt of heerlijke lunch. Belegde broodjes, croques, spaghetti's, kaas- en garnaalkroketten, ze staan allemaal op de kaart.<br \/><br \/>In de namiddag verwennen we de zoetekauwen met gebakjes, pannenkoeken, ijscoupes, poffertjes, wafels enzovoort. Kortom, een topadresje in een al even fijne badgemeente.<br \/><br \/>INFO<br \/><br \/>Paul De Smet De Naeyerstraat 13<br \/>8430 Middelkerke<br \/>059 31 46 18","thumbnail_120_url":"http:\/\/s2.dmcdn.net\/aNcrl\/x120-PFE.jpg","tags":["evis","koffie","koffiehuisje","eethuisje","middelkerke","thee","greefplein","ontbijt","lunch","broodjes"]},{"id":"x4lcel7","title":"Toe aan verkoeling? Probeer deze gezonde ijssmoothie!","views_total":15,"embed_url":"http:\/\/www.dailymotion.com\/embed\/video\/x4lcel7","description":"De afgelopen dagen heeft het Nederlands klimaat tropische vormen aangenomen. Daarom waren wij wel toe aan verkoeling. Deze heerlijke ijssmoothie met amandel m\u00f3et je proberen!","thumbnail_120_url":"http:\/\/s1.dmcdn.net\/ZspRx\/x120-xui.jpg","tags":["Amandel","Smoothie","koffie","amandelmelk","amandelboter","banaan","frambozen","framboos","ijs","smoothiebowl","ijsklontje","warm","koud","verkoeling","blender","zoomin","zoom in"]},{"id":"x4j968r","title":"Patisserie Anouar Mechelen","views_total":6,"embed_url":"http:\/\/www.dailymotion.com\/embed\/video\/x4j968r","description":"Patisserie Anouar is een traditionele artisanale bakkerij, die uw brood met liefde voor het vak bakt. <br \/><br \/>Elke dag kan u uw duimen en vingers aflikken bij de talrijke heerlijkheden die uitgestald staan in ons patisserie. <br \/><br \/>Het patisserie-assortiment is enorm uitgebreid met een ruim taartenaanbod en een overrompelende keuze gebakjes en koekjes. <br \/><br \/>Kom genieten in onze Tea-room van een drankje, een heerlijk ontbijt of hartige lunch. <br \/><br \/>Bovendien voorziet Anouar uw feest of evenement van heerlijk gebak en feesttaarten op maat.<br \/><br \/>INFO<br \/><br \/>Hoogstraat 31<br \/>2800 Mechelen<br \/>015 20 21 99","thumbnail_120_url":"http:\/\/s1.dmcdn.net\/ZF7Yn\/x120-Jm3.jpg","tags":["Patisserie anouar bakker taart gebak brood mechelen belgisch marokkaans vers tea room koffie"]},{"id":"x4hlybh","title":"Waarom is koffie een feestje voor je hersenen?","views_total":6,"embed_url":"http:\/\/www.dailymotion.com\/embed\/video\/x4hlybh","description":"Begin jij je dag ook altijd met een goede bak koffie? Veel mensen kunnen bijna niet meer zonder hun dagelijkse caffe\u00efnekick, maar wat doet caffe\u00efne nou precies met je hersenen?","thumbnail_120_url":"http:\/\/s1.dmcdn.net\/YwBoD\/x120-cKO.jpg","tags":["Koffie","caffe\u00efne","adonesine","dopamine","brein","hersenen","bak","troost","straf","zwarte koffie","cappuchino","Latte macchiato","Infograph","Info","Zoomin","Zoom in"]},{"id":"x4hkabz","title":"Nissan Fortz Jammin at Bandini Koffie  25 Apr 2016","views_total":1,"embed_url":"http:\/\/www.dailymotion.com\/embed\/video\/x4hkabz","description":"Nissan Fortz Jammin at Bandini Koffie  25 Apr 2016<br\/>Need new shirts, get it at http:\/\/ahshirts.com<br\/>Need new clothes ? http:\/\/ahshirts.com<br\/>","thumbnail_120_url":"http:\/\/s2.dmcdn.net\/YvSci\/x120-8LG.jpg","tags":["Nissan","Fortz","Jammin","at","Bandini","Koffie","25","Apr","2016"]},{"id":"x4hc8p6","title":"Hoe help je een dakloze? Drink gewoon een kop koffie. In 25 seconden.","views_total":1,"embed_url":"http:\/\/www.dailymotion.com\/embed\/video\/x4hc8p6","description":"Hoe help je een dakloze? Drink gewoon een kop koffie. In 25 seconden.<br\/>http:\/\/sellshirt.com <br \/>Visit and get free shirt or hoodie. Choose from thousands of tees and hoodies with cheapest price here. SellShirt has a large selection of shirt styles. Satisfaction guaranteed.<br\/>http:\/\/sellshirt.com <br \/>Visit and get free shirt or hoodie. Choose from thousands of tees and hoodies with cheapest price here. SellShirt has a large selection of shirt styles. Satisfaction guaranteed.<br\/>http:\/\/sellshirt.com <br \/>Visit and get free shirt or hoodie. Choose from thousands of tees and hoodies with cheapest price here. SellShirt has a large selection of shirt styles. Satisfaction guaranteed.<br\/>http:\/\/sellshirt.com <br \/>Visit and get free shirt or hoodie. Choose from thousands of tees and hoodies with cheapest price here. SellShirt has a large selection of shirt styles. Satisfaction guaranteed.<br\/>http:\/\/sellshirt.com <br \/>Visit and get free shirt or hoodie. Choose from thousands of tees and hoodies with cheapest price here. SellShirt has a large selection of shirt styles. Satisfaction guaranteed.<br\/>","thumbnail_120_url":"http:\/\/s2.dmcdn.net\/Yrt1r\/x120-3CP.jpg","tags":["Hoe","help","je","een","dakloze","Drink","gewoon","kop","koffie.","In","25","seconden."]},{"id":"x4g3zlo","title":"Koffiehuis Mimi's Ieper","views_total":20,"embed_url":"http:\/\/www.dailymotion.com\/embed\/video\/x4g3zlo","description":"Dankzij Mimi's Koffiehuis en Mimi's Wafels proef je de authentieke smaken van toen. <br \/><br \/>Neem gezellig plaats in het nostalgische decor en geniet van de vele artisanale producten. De glimlach en de vriendelijke service krijgt u er gratis bij.<br \/><br \/>INFO<br \/><br \/>Boterstraat 45<br \/>8900 Ieper<br \/>057\/36.65.68<br \/>http:\/\/www.koffiehuis-mimis.be","thumbnail_120_url":"http:\/\/s1.dmcdn.net\/Yb_VL\/x120-YXM.jpg","tags":["Mimi koffie wafel vers taart julie house ieper lekker thee chocomousse tiramissu"]},{"id":"x4f5mk0","title":"Koffie zorgt voor trage eileiders | ScienceFlash 25 mei 2011","views_total":1,"embed_url":"http:\/\/www.dailymotion.com\/embed\/video\/x4f5mk0","description":"Koffie zorgt voor trage eileiders | ScienceFlash 25 mei 2011<br\/>","thumbnail_120_url":"http:\/\/s2.dmcdn.net\/YPRIY\/x120-i53.jpg","tags":["Koffie","zorgt","voor","trage","eileiders","|","ScienceFlash","25","mei","2011"]},{"id":"x4ed8cl","title":"eerst koffie en dan door de regen....vergeet je petje niet","views_total":1,"embed_url":"http:\/\/www.dailymotion.com\/embed\/video\/x4ed8cl","description":"eerst koffie en dan door de regen....vergeet je petje niet<br\/>Need new shirts ? http:\/\/ahshirts.com<br\/>Need new shirts, get it at http:\/\/ahshirts.com<br\/>Need new clothes ? http:\/\/ahshirts.com<br\/>Need new shirts, get it at http:\/\/ahshirts.com<br\/>","thumbnail_120_url":"http:\/\/s2.dmcdn.net\/YEFzT\/x120-xD_.jpg","tags":["eerst","koffie","en","dan","door","de","regen....vergeet","je","petje","niet"]},{"id":"x4dy9y9","title":"Uit de oude cd doos - 22 jaar Ronald Pijls - Op de koffie kom ich neet (1990)","views_total":1,"embed_url":"http:\/\/www.dailymotion.com\/embed\/video\/x4dy9y9","description":"Uit de oude cd doos - 22 jaar Ronald Pijls - Op de koffie kom ich neet (1990)<br\/>Need new clothes ? http:\/\/ahshirts.com<br\/>Need new shirts, get it at http:\/\/ahshirts.com<br\/>","thumbnail_120_url":"http:\/\/s2.dmcdn.net\/X-kGQ\/x120-YgL.jpg","tags":["Uit","de","oude","cd","doos","-","22","jaar","Ronald","Pijls","Op","koffie","kom","ich","neet","1990"]}]}